{"count":35,"page":3,"page_size":10,"total_pages":4,"incidents":[{"id":"02b48178","title":"Недоступность Widgets API","date":"2020-03-15T18:00:00.000Z","modified":"2021-05-04T08:24:47.210Z","scheduled":null,"duration":720,"severity":"outage","affectedsystems":["widgets-api"],"resolved":true,"content":"<p>Из-за ошибок во внешнем сервисе, временно остановлена раздача скрипта, который отображает виджет с отзывами.</p>\n<div class=\"update-block\">\n          <div class=\"update-block-date\">2020-03-16T07:30:00.000Z</div>\n          <div class=\"update-block-content\">\n            <div class=\"update-block-title\">Resolved</div>\n            <div class=\"update-block-body\">\n<p>На данный момент проблема устранена. Для своевременного обнаружения проблемы в следующий раз:</p>\n<ol>\n<li>Добавим мониторинг доступности скрипта через CDN</li>\n<li>Устраним зависимость от внешнего сервиса.</li>\n</ol>\n</div></div></div>\n<!--- language code: ru -->\n"},{"id":"42253c0a","title":"Плановое переключение трафика Widgets API","date":"2020-02-21T08:30:00.000Z","modified":"2021-05-04T08:24:47.209Z","scheduled":null,"severity":"under-maintenance","affectedsystems":["widgets-api"],"resolved":true,"content":"<p>Плановое переключение части трафика к Widgets API на новый кластер кэширующих серверов.\nПереключение затрагивает только трафик через домены widgets.shoppilot.ru и w-api.shoppilot.ru.</p>\n<div class=\"update-block\">\n          <div class=\"update-block-date\">2020-02-21T08:40:00.000Z</div>\n          <div class=\"update-block-content\">\n            <div class=\"update-block-title\">Monitoring</div>\n            <div class=\"update-block-body\">\n<p>Наблюдаем увеличение времени задержки.</p>\n</div></div></div>\n<div class=\"update-block\">\n          <div class=\"update-block-date\">2020-02-21T10:20:00.000Z</div>\n          <div class=\"update-block-content\">\n            <div class=\"update-block-title\">Monitoring</div>\n            <div class=\"update-block-body\">\n<p>Переключили трафик обратно. Через 10 минут ожидаем восстановление latency.</p>\n</div></div></div>\n<!--- language code: ru -->\n"},{"id":"596db6f1","title":"Плановое обновление БД","date":"2020-02-17T14:00:00.000Z","modified":"2021-05-04T08:24:47.208Z","scheduled":null,"severity":"under-maintenance","affectedsystems":["widgets-api","platform-api","submissions-api","web-console","campaigns-delivery","notifications-delivery"],"resolved":true,"content":"<p>Плановое обновление сервера БД (2 версии). Ожидается кратковременная недоступность некоторых сервисов до 1 минуты.</p>\n<div class=\"update-block\">\n          <div class=\"update-block-date\">2020-02-17T14:10:00.000Z</div>\n          <div class=\"update-block-content\">\n            <div class=\"update-block-title\">Monitoring</div>\n            <div class=\"update-block-body\">\n<p>Неудачное обновление, пришлось временно откатить одну версию. Наблюдается недоступность некоторых сервисов.</p>\n</div></div></div>\n<div class=\"update-block\">\n          <div class=\"update-block-date\">2020-02-17T14:20:00.000Z</div>\n          <div class=\"update-block-content\">\n            <div class=\"update-block-title\">Monitoring</div>\n            <div class=\"update-block-body\">\n<p>Работоспособность всех сервисов восстановлена.</p>\n</div></div></div>\n<!--- language code: ru -->\n"},{"id":"23667f38","title":"Падение производительности Widgets API","date":"2020-02-12T07:20:00.000Z","modified":"2021-05-04T08:24:47.208Z","scheduled":null,"severity":"partial-outage","affectedsystems":["widgets-api"],"resolved":true,"content":"<p>Наблюдается падение производительности Widgets API. Мы разбираемся, ищем причины.</p>\n<!--- language code: ru -->\n"},{"id":"30354a36","title":"Системные уведомления","date":"2020-02-05T11:00:00.000Z","modified":"2021-05-04T08:24:47.207Z","scheduled":null,"severity":"degraded-performance","affectedsystems":["notifications-delivery","campaigns-delivery"],"resolved":true,"content":"<p>Наблюдается задержка в доставке системных писем (уведомления, экспорты, ...). Также есть неточности в статистике по доставленным и прочитанным письмам email кампаний.</p>\n<!--- language code: ru -->\n"},{"id":"640541c4","title":"Частичная недоступность сервисов","date":"2020-02-04T11:00:00.000Z","modified":"2021-05-04T08:24:47.207Z","scheduled":null,"severity":"partial-outage","affectedsystems":["widgets-api","submissions-api","web-console"],"resolved":true,"content":"<p>Наблюдается частичная недоступность некоторых сервисов из-за неполадок в локальной сети нашего дата-центра.</p>\n<!--- language code: ru -->\n"},{"id":"46fc9419","title":"Падение производительности Widgets API","date":"2020-01-21T16:40:00.000Z","modified":"2021-05-04T08:24:47.206Z","scheduled":null,"severity":"partial-outage","affectedsystems":["widgets-api"],"resolved":true,"content":"<p>Задеплоили важное изменение, инвалидировали кэш виджетов. 40 минут наблюдали падение производительности Widgets API.</p>\n<!--- language code: ru -->\n"},{"id":"4f2850ba","title":"Email кампании частично остановлены","date":"2019-12-12T08:00:00.000Z","modified":"2021-05-04T08:24:47.206Z","scheduled":null,"severity":"partial-outage","affectedsystems":["campaigns-delivery"],"resolved":true,"content":"<p>Отправка писем по некоторым email кампаниям временно приостановлена. Один из наших доменов отправки был заблокирован почтовым сервисом. Что автоматически привело к блокировке всего аккаунта. На данный момент мы настроили своего рассыльщика и идет постепенное переключение трафика.</p>\n<div class=\"update-block\">\n          <div class=\"update-block-date\">2019-12-18T11:00:00.000Z</div>\n          <div class=\"update-block-content\">\n            <div class=\"update-block-title\">Monitoring</div>\n            <div class=\"update-block-body\">\n<p>Отправка писем восстановлена, аккаунты разблокированы. Часть писем отправляется через новый рассыльщик.\nВ ЛК в разделе Отчеты по кампаниям может быть не точная статистика по отправленным письмам.</p>\n</div></div></div>\n<!--- language code: ru -->\n"},{"id":"30b2c5bc","title":"Плановое обновление","date":"2019-12-06T19:07:10.376Z","modified":"2021-05-04T08:24:47.205Z","scheduled":null,"severity":"under-maintenance","affectedsystems":["widgets-api","platform-api","submissions-api","web-console","email-delivery"],"resolved":true,"content":"<p>Плановое обновление версии ПО Docker. Ожидается кратковременная недоступность некоторых сервисов до 1 минуты.</p>\n<!--- language code: ru -->\n"},{"id":"356811c0","title":"Недоступность сервисов","date":"2019-12-04T12:00:00.000Z","modified":"2021-05-04T08:24:47.204Z","scheduled":null,"duration":20,"severity":"degraded-performance","affectedsystems":["widgets-api","platform-api","web-console","submissions-api"],"resolved":true,"content":"<p>При обновлении ПО на сервере была допущена ошибка, что привело к недоступности некоторых сервисов.\nСейчас проблема исправлена.</p>\n<!--- language code: ru -->\n"}]}