{"count":17,"page":2,"page_size":10,"total_pages":2,"incidents":[{"id":"30b2c5bc","title":"Плановое обновление","date":"2019-12-06T19:07:10.376Z","modified":"2020-06-10T14:03:11.883Z","scheduled":null,"severity":"under-maintenance","affectedsystems":["widgets-api","platform-api","submissions-api","web-console","email-delivery"],"resolved":true,"content":"<p>Плановое обновление версии ПО Docker. Ожидается кратковременная недоступность некоторых сервисов до 1 минуты.</p>\n<!--- language code: ru -->\n"},{"id":"356811c0","title":"Недоступность сервисов","date":"2019-12-04T12:00:00.000Z","modified":"2020-06-10T14:03:11.882Z","scheduled":null,"duration":20,"severity":"degraded-performance","affectedsystems":["widgets-api","platform-api","web-console","submissions-api"],"resolved":true,"content":"<p>При обновлении ПО на сервере была допущена ошибка, что привело к недоступности некоторых сервисов.\nСейчас проблема исправлена.</p>\n<!--- language code: ru -->\n"},{"id":"76be275c","title":"Падение производительности Widgets API","date":"2019-12-02T07:00:00.000Z","modified":"2020-06-10T14:03:11.881Z","scheduled":null,"severity":"degraded-performance","affectedsystems":["widgets-api"],"resolved":true,"content":"<p>Наблюдается нестабильность задержки ответов Widgets API. Проблема локализована, исправляем.</p>\n<div class=\"update-block\">\n          <div class=\"update-block-date\">2019-12-02T11:00:00.000Z</div>\n          <div class=\"update-block-content\">\n            <div class=\"update-block-title\">Monitoring</div>\n            <div class=\"update-block-body\">\n<p>Не хватало ресурсов кэширующим серверам Redis, выделены дополнительные ресурсы.</p>\n</div></div></div>\n<!--- language code: ru -->\n"},{"id":"499d0009","title":"Миграция сервисов","date":"2019-11-29T07:00:00.000Z","modified":"2020-06-10T14:03:11.880Z","scheduled":"2019-11-29T07:00:00.000Z","duration":600,"severity":"degraded-performance","affectedsystems":["campaigns-delivery"],"resolved":true,"content":"<p>Продолжается миграция сервисов платформы на новые сервера. Сегодня  полностью переиндексируем заказы, возможно не все заказы будут видны в разделе заказы. Реиндекс частично затронет email кампании.</p>\n<p>Также планируем провести оптимизацию настроек некоторых серверов, возможная краткосрочная недоступность, но не больше 5 минут.</p>\n<!--- language code: ru -->\n"},{"id":"413bf1a8","title":"Частичная недоступность Widgets API","date":"2019-11-28T12:16:02.047Z","modified":"2020-06-10T14:03:11.879Z","scheduled":"2019-11-26T07:00:00.000Z","duration":420,"severity":"degraded-performance","affectedsystems":["widgets-api"],"resolved":true,"content":"<p>Продолжается миграция сервисов на новые сервера. При переключении веб-трафика возможно падение производительности сервисов.</p>\n<div class=\"update-block\">\n          <div class=\"update-block-date\">2019-11-28T13:20:00.000Z</div>\n          <div class=\"update-block-content\">\n            <div class=\"update-block-title\">Monitoring</div>\n            <div class=\"update-block-body\">\n<p>Проблема исправлена, под наблюдением.</p>\n</div></div></div>\n<!--- language code: ru -->\n"},{"id":"413b7d49","title":"Миграция сервисов","date":"2019-11-27T12:16:02.047Z","modified":"2020-06-10T14:03:11.877Z","scheduled":"2019-11-26T07:00:00.000Z","duration":420,"severity":"under-maintenance","affectedsystems":["platform-api","submissions-api","web-console"],"resolved":true,"content":"<p>Продолжается миграция все сервисов платформы на новые сервера. Возможна краткосрочная недоступность, но не больше 5 минут.</p>\n<!--- language code: ru -->\n"},{"id":"dc36eee4","title":"Миграция данных","date":"2019-11-26T10:04:00.000Z","modified":"2020-06-10T14:03:11.875Z","scheduled":"2019-11-26T07:00:00.000Z","duration":360,"severity":"under-maintenance","affectedsystems":["widgets-api","platform-api","submissions-api","web-console"],"resolved":true,"content":"<p>Запланированная миграция данных на новые сервера. Перерывов в работе не ожидается.</p>\n<div class=\"update-block\">\n          <div class=\"update-block-date\">2019-11-26T11:19:00.000Z</div>\n          <div class=\"update-block-content\">\n            <div class=\"update-block-title\">Monitoring</div>\n            <div class=\"update-block-body\">\n<p>Мигрировали один сервер, работа продолжается.</p>\n</div></div></div>\n<!--- language code: ru -->\n"}]}