{"count":40,"page":1,"page_size":10,"total_pages":4,"incidents":[{"id":"4b28f9d5","title":"Неисправность оборудования","date":"2021-06-29T15:34:32.188Z","modified":"2021-06-29T22:38:26.018Z","scheduled":null,"severity":"major-outage","affectedsystems":["widgets-api","platform-api","submissions-api","web-console","campaigns-delivery","notifications-delivery","reviews-monitoring"],"resolved":false,"content":"<p>Проблемы с локальной сетью в датацентре, вызыванные неисправностью оборудования,\nпривели к распаду виртуального облака. Большая часть сервисов недоступна либо\nотвечает с большими задержками. Мы работаем над решением проблемы совместно с\nинженерами хостинг-провайдера.</p>\n<!--- language code: ru -->\n"},{"id":"3821e391","title":"Обновление SSL сертификатов","date":"2021-06-09T09:00:00.000Z","modified":"2021-06-29T22:38:26.017Z","scheduled":"2021-06-09T20:00:00.000Z","duration":10,"severity":"under-maintenance","affectedsystems":["widgets-api","submissions-api"],"resolved":true,"content":"<p>Запланировано обновление SSL сертификатов на кэш серверах Widgets API в 23:00 по Москве.\nОжидается незначительный простой в течение 1-2 минуты.</p>\n<!--- language code: ru -->\n"},{"id":"8c639804","title":"Добавление памяти","date":"2021-06-09T09:00:00.000Z","modified":"2021-06-29T22:38:26.017Z","scheduled":"2021-06-15T20:00:00.000Z","duration":60,"severity":"under-maintenance","affectedsystems":["web-console","platform-api","widgets-api","submissions-api"],"resolved":false,"content":"<p>Выделяем больше памяти для поисковых серверов. Ожидаются падение производительности\nсервисов в течение нескольких минут.</p>\n<!--- language code: ru -->\n"},{"id":"61e75b19","title":"Перенос сервера очередей","date":"2021-06-03T07:00:00.000Z","modified":"2021-06-29T22:38:26.016Z","scheduled":"2021-06-03T08:00:00.000Z","duration":null,"severity":"under-maintenance","affectedsystems":["web-console","platform-api"],"resolved":true,"content":"<p>Переносим сервис очередей на новый сервер.</p>\n<!--- language code: ru -->\n"},{"id":"2b5a6d87","title":"Добавление ноды в поисковый кластер","date":"2021-05-31T14:30:00.000Z","modified":"2021-06-29T22:38:26.016Z","scheduled":"2021-05-31T14:30:00.000Z","duration":null,"severity":"under-maintenance","affectedsystems":["widgets-api","platform-api","submissions-api","web-console"],"resolved":true,"content":"<p>Добавляем новую ноду в кластер ElasticSearch. Простоя сервисов не ожидается.</p>\n<!--- language code: ru -->\n"},{"id":"653ad26c","title":"Инвалидация кэша виджетов","date":"2021-04-03T00:00:00.000Z","modified":"2021-06-29T22:38:26.014Z","scheduled":null,"severity":"degraded-performance","affectedsystems":["widgets-api"],"resolved":true,"content":"<p>Частично не работает инвалидация кэша виджетов по событиям.\nНовые отзывы/комментарии на сайте не появляются сразу после публикации,\nа только в течение суток.</p>\n<!--- language code: ru -->\n"},{"id":"984bbf20","title":"Увеличение задержки в Widgets API","date":"2021-04-01T00:00:00.000Z","modified":"2021-06-29T22:38:26.015Z","scheduled":null,"severity":"degraded-performance","affectedsystems":["widgets-api","platform-api"],"resolved":true,"content":"<p>Наблюдается увеличение задержки в Widgets API и Platform API.\nПричина локализована. Ведутся работы по расширению серверного кластера.</p>\n<!--- language code: ru -->\n"},{"id":"9070867c","title":"Апгрейд сервисов кэширования","date":"2021-03-10T18:00:00.000Z","modified":"2021-06-29T22:38:26.013Z","scheduled":"2021-03-10T19:50:00.000Z","duration":30,"severity":"under-maintenance","affectedsystems":["widgets-api"],"resolved":"resolved","content":"<p>Планируется перезагрузить некоторые сервисы и сбросить кеш виджетов.\nОжидается увеличение latency Widgets API в течение 30 минут.</p>\n<!--- language code: ru -->\n"},{"id":"906f9dbe","title":"Добавление индекса в БД","date":"2021-03-10T18:00:00.000Z","modified":"2021-06-29T22:38:26.013Z","scheduled":"2021-03-10T19:50:00.000Z","duration":10,"severity":"under-maintenance","affectedsystems":["widgets-api","platform-api","submissions-api","web-console"],"resolved":true,"content":"<p>Планируется добавление большого индекса в БД.\nОжидается простой до 10 минут.</p>\n<!--- language code: ru -->\n"},{"id":"32b62767","title":"Недоступность Widgets API","date":"2021-02-10T00:00:00.000Z","modified":"2021-06-29T22:38:26.012Z","scheduled":null,"severity":"partial-outage","affectedsystems":["widgets-api"],"resolved":true,"content":"<p>Сегодня c 00:00 до 07:00 по Москве наблюдалась частичная недоступность\nWidgets API. Из-за сетевого сбоя отвалилась одна нода Docker Swarm кластера\nи не смогла самостоятельно восстановиться. В результате часть трафика ушла на\nдругие ноды, что увеличило нагрузку на них.</p>\n<br>\nВ ближайшее время запланируем обновление ПО, которое должно исправить данную проблему.\nПриносим извинения за доставленные неудобства.\n<!--- language code: ru -->\n"}]}