{"count":16,"page":1,"page_size":3,"total_pages":6,"periods":[{"id":"2021-6","incidents":[{"id":"7c53eed3","title":"Восстановление после сбоя","date":"2021-06-30T18:55:57.635Z","modified":"2021-07-01T14:52:42.661Z","scheduled":null,"severity":"degraded-performance","affectedsystems":["widgets-api","campaigns-delivery","notifications-delivery"],"resolved":true,"content":"<p>Большая часть сервисов восстановлена, но ещё наблюдается небольшое падение производительности Widgets API и задержки при доставке email.</p>\n<!--- language code: ru -->\n"},{"id":"4b28f9d5","title":"Неисправность оборудования","date":"2021-06-29T15:34:32.188Z","modified":"2021-06-30T18:53:21.982Z","scheduled":null,"severity":"major-outage","affectedsystems":["widgets-api","platform-api","submissions-api","web-console","campaigns-delivery","notifications-delivery","reviews-monitoring"],"resolved":true,"content":"<p>Проблемы с локальной сетью в датацентре, вызыванные неисправностью оборудования,\nпривели к распаду виртуального облака. Большая часть сервисов недоступна либо\nотвечает с большими задержками. Мы работаем над решением проблемы совместно с\nинженерами хостинг-провайдера.</p>\n<!--- language code: ru -->\n"},{"id":"3821e391","title":"Обновление SSL сертификатов","date":"2021-06-09T09:00:00.000Z","modified":"2021-07-01T14:53:13.757Z","scheduled":"2021-06-09T20:00:00.000Z","duration":10,"severity":"under-maintenance","affectedsystems":["widgets-api","submissions-api"],"resolved":true,"content":"<p>Запланировано обновление SSL сертификатов на кэш серверах Widgets API в 23:00 по Москве.\nОжидается незначительный простой в течение 1-2 минуты.</p>\n<!--- language code: ru -->\n"},{"id":"8c639804","title":"Добавление памяти","date":"2021-06-09T09:00:00.000Z","modified":"2021-07-01T14:54:20.717Z","scheduled":"2021-06-15T20:00:00.000Z","duration":60,"severity":"under-maintenance","affectedsystems":["widgets-api","platform-api","submissions-api","web-console"],"resolved":true,"content":"<p>Выделяем больше памяти для поисковых серверов. Ожидаются падение производительности\nсервисов в течение нескольких минут.</p>\n<!--- language code: ru -->\n"},{"id":"61e75b19","title":"Перенос сервера очередей","date":"2021-06-03T07:00:00.000Z","modified":"2021-07-01T14:54:46.031Z","scheduled":"2021-06-03T08:00:00.000Z","duration":null,"severity":"under-maintenance","affectedsystems":["web-console","platform-api"],"resolved":true,"content":"<p>Переносим сервис очередей на новый сервер.</p>\n<!--- language code: ru -->\n"}],"order":1,"count":5},{"id":"2021-5","incidents":[{"id":"2b5a6d87","title":"Добавление ноды в поисковый кластер","date":"2021-05-31T14:30:00.000Z","modified":"2021-06-30T19:23:31.786Z","scheduled":"2021-05-31T14:30:00.000Z","duration":null,"severity":"under-maintenance","affectedsystems":["widgets-api","platform-api","submissions-api","web-console"],"resolved":true,"content":"<p>Добавляем новую ноду в кластер ElasticSearch. Простоя сервисов не ожидается.</p>\n<!--- language code: ru -->\n"}],"order":2,"count":1},{"id":"2021-4","incidents":[{"id":"653ad26c","title":"Инвалидация кэша виджетов","date":"2021-04-03T00:00:00.000Z","modified":"2021-07-01T14:54:46.029Z","scheduled":null,"severity":"degraded-performance","affectedsystems":["widgets-api"],"resolved":true,"content":"<p>Частично не работает инвалидация кэша виджетов по событиям.\nНовые отзывы/комментарии на сайте не появляются сразу после публикации,\nа только в течение суток.</p>\n<!--- language code: ru -->\n"},{"id":"984bbf20","title":"Увеличение задержки в Widgets API","date":"2021-04-01T00:00:00.000Z","modified":"2021-07-01T14:54:46.030Z","scheduled":null,"severity":"degraded-performance","affectedsystems":["widgets-api","platform-api"],"resolved":true,"content":"<p>Наблюдается увеличение задержки в Widgets API и Platform API.\nПричина локализована. Ведутся работы по расширению серверного кластера.</p>\n<!--- language code: ru -->\n"}],"order":3,"count":2}]}