{"count":15,"page":4,"page_size":3,"total_pages":5,"periods":[{"id":"2020-6","incidents":[{"id":"f645b8c4","title":"Плановые работы БД","date":"2020-06-16T11:00:00.000Z","modified":"2021-05-31T14:37:51.080Z","scheduled":"2020-06-16T11:00:00.000Z","duration":15,"severity":"under-maintenance","affectedsystems":["widgets-api","platform-api","submissions-api","web-console"],"resolved":true,"content":"<p>Планируем добавить новые индексы для оптимизации производительности БД.\nОжидается недоступность некоторых сервисов.</p>\n<!--- language code: ru -->\n"},{"id":"6ec960d8","title":"Недоступность Widgets API","date":"2020-06-13T21:00:00.000Z","modified":"2021-05-31T14:37:51.078Z","scheduled":null,"duration":900,"severity":"outage","affectedsystems":["widgets-api"],"resolved":true,"content":"<p>Сегодня ночью в 00:00 часов выключился один из наших серверов, который обрабатывает запросы в Widgets API.\nОказывается наш хостинг-провайдер не произвел автоматическое списание средств с предоплаченного счета, тк на данном конкретном сервере автоматическое списание было <strong>не включено</strong>.\nУведомление об отключении пришло на почту в выходной день, и мы его пропустили. На данный момент все сервисы работают в штатном режиме.\n<br/>\nПриносим свои извинения.</p>\n<!--- language code: ru -->\n"},{"id":"761f53ca","title":"Плановое обновление БД","date":"2020-06-10T13:51:06.164Z","modified":"2021-05-31T14:37:51.073Z","scheduled":"2020-06-10T14:00:00.000Z","duration":15,"severity":"under-maintenance","affectedsystems":["widgets-api","platform-api","submissions-api","web-console"],"resolved":true,"content":"<p>Планируем обновить БД. Будем переключать мастер реплику базу данных.\nОжидается кратковременная недоступность некоторых сервисов (до 1 минуты).</p>\n<!--- language code: ru -->\n"},{"id":"4db9bbbb","title":"Падение производительности Widgets API","date":"2020-06-02T19:00:00.000Z","modified":"2021-05-31T14:37:51.073Z","scheduled":null,"severity":"partial-outage","affectedsystems":["widgets-api"],"resolved":true,"content":"<p>После обновления настроек кэширующих серверов, обнаружилась проблема с подсистемой логов, которая проявлялась только под нагрузкой.\nПришлось несколько раз перезагрузить сервисы, что приводило к увеличению задержки в работе Widgets API.\nНа данный момент задержка приходит в норму, проводим наблюдение.</p>\n<!--- language code: ru -->\n"}],"order":12,"count":4},{"id":"2020-3","incidents":[{"id":"02b48178","title":"Недоступность Widgets API","date":"2020-03-15T18:00:00.000Z","modified":"2021-05-31T14:37:51.072Z","scheduled":null,"duration":720,"severity":"outage","affectedsystems":["widgets-api"],"resolved":true,"content":"<p>Из-за ошибок во внешнем сервисе, временно остановлена раздача скрипта, который отображает виджет с отзывами.</p>\n<div class=\"update-block\">\n          <div class=\"update-block-date\">2020-03-16T07:30:00.000Z</div>\n          <div class=\"update-block-content\">\n            <div class=\"update-block-title\">Resolved</div>\n            <div class=\"update-block-body\">\n<p>На данный момент проблема устранена. Для своевременного обнаружения проблемы в следующий раз:</p>\n<ol>\n<li>Добавим мониторинг доступности скрипта через CDN</li>\n<li>Устраним зависимость от внешнего сервиса.</li>\n</ol>\n</div></div></div>\n<!--- language code: ru -->\n"}],"order":15,"count":1},{"id":"2020-2","incidents":[{"id":"42253c0a","title":"Плановое переключение трафика Widgets API","date":"2020-02-21T08:30:00.000Z","modified":"2021-05-31T14:37:51.071Z","scheduled":null,"severity":"under-maintenance","affectedsystems":["widgets-api"],"resolved":true,"content":"<p>Плановое переключение части трафика к Widgets API на новый кластер кэширующих серверов.\nПереключение затрагивает только трафик через домены widgets.shoppilot.ru и w-api.shoppilot.ru.</p>\n<div class=\"update-block\">\n          <div class=\"update-block-date\">2020-02-21T08:40:00.000Z</div>\n          <div class=\"update-block-content\">\n            <div class=\"update-block-title\">Monitoring</div>\n            <div class=\"update-block-body\">\n<p>Наблюдаем увеличение времени задержки.</p>\n</div></div></div>\n<div class=\"update-block\">\n          <div class=\"update-block-date\">2020-02-21T10:20:00.000Z</div>\n          <div class=\"update-block-content\">\n            <div class=\"update-block-title\">Monitoring</div>\n            <div class=\"update-block-body\">\n<p>Переключили трафик обратно. Через 10 минут ожидаем восстановление latency.</p>\n</div></div></div>\n<!--- language code: ru -->\n"},{"id":"596db6f1","title":"Плановое обновление БД","date":"2020-02-17T14:00:00.000Z","modified":"2021-05-31T14:37:51.070Z","scheduled":null,"severity":"under-maintenance","affectedsystems":["widgets-api","platform-api","submissions-api","web-console","campaigns-delivery","notifications-delivery"],"resolved":true,"content":"<p>Плановое обновление сервера БД (2 версии). Ожидается кратковременная недоступность некоторых сервисов до 1 минуты.</p>\n<div class=\"update-block\">\n          <div class=\"update-block-date\">2020-02-17T14:10:00.000Z</div>\n          <div class=\"update-block-content\">\n            <div class=\"update-block-title\">Monitoring</div>\n            <div class=\"update-block-body\">\n<p>Неудачное обновление, пришлось временно откатить одну версию. Наблюдается недоступность некоторых сервисов.</p>\n</div></div></div>\n<div class=\"update-block\">\n          <div class=\"update-block-date\">2020-02-17T14:20:00.000Z</div>\n          <div class=\"update-block-content\">\n            <div class=\"update-block-title\">Monitoring</div>\n            <div class=\"update-block-body\">\n<p>Работоспособность всех сервисов восстановлена.</p>\n</div></div></div>\n<!--- language code: ru -->\n"},{"id":"23667f38","title":"Падение производительности Widgets API","date":"2020-02-12T07:20:00.000Z","modified":"2021-05-31T14:37:51.069Z","scheduled":null,"severity":"partial-outage","affectedsystems":["widgets-api"],"resolved":true,"content":"<p>Наблюдается падение производительности Widgets API. Мы разбираемся, ищем причины.</p>\n<!--- language code: ru -->\n"},{"id":"30354a36","title":"Системные уведомления","date":"2020-02-05T11:00:00.000Z","modified":"2021-05-31T14:37:51.069Z","scheduled":null,"severity":"degraded-performance","affectedsystems":["notifications-delivery","campaigns-delivery"],"resolved":true,"content":"<p>Наблюдается задержка в доставке системных писем (уведомления, экспорты, ...). Также есть неточности в статистике по доставленным и прочитанным письмам email кампаний.</p>\n<!--- language code: ru -->\n"},{"id":"640541c4","title":"Частичная недоступность сервисов","date":"2020-02-04T11:00:00.000Z","modified":"2021-05-31T14:37:51.068Z","scheduled":null,"severity":"partial-outage","affectedsystems":["widgets-api","submissions-api","web-console"],"resolved":true,"content":"<p>Наблюдается частичная недоступность некоторых сервисов из-за неполадок в локальной сети нашего дата-центра.</p>\n<!--- language code: ru -->\n"}],"order":16,"count":5}]}