{"count":16,"page":6,"page_size":3,"total_pages":6,"periods":[{"id":"2019-11","incidents":[{"id":"499d0009","title":"Миграция сервисов","date":"2019-11-29T07:00:00.000Z","modified":"2021-07-01T14:54:46.000Z","scheduled":"2019-11-29T07:00:00.000Z","duration":600,"severity":"degraded-performance","affectedsystems":["campaigns-delivery"],"resolved":true,"content":"<p>Продолжается миграция сервисов платформы на новые сервера. Сегодня  полностью переиндексируем заказы, возможно не все заказы будут видны в разделе заказы. Реиндекс частично затронет email кампании.</p>\n<p>Также планируем провести оптимизацию настроек некоторых серверов, возможная краткосрочная недоступность, но не больше 5 минут.</p>\n<!--- language code: ru -->\n"},{"id":"413bf1a8","title":"Частичная недоступность Widgets API","date":"2019-11-28T12:16:02.047Z","modified":"2021-06-30T19:25:50.075Z","scheduled":"2019-11-26T07:00:00.000Z","duration":420,"severity":"degraded-performance","affectedsystems":["widgets-api"],"resolved":true,"content":"<p>Продолжается миграция сервисов на новые сервера. При переключении веб-трафика возможно падение производительности сервисов.</p>\n<div class=\"update-block\">\n          <div class=\"update-block-date\">2019-11-28T13:20:00.000Z</div>\n          <div class=\"update-block-content\">\n            <div class=\"update-block-title\">Monitoring</div>\n            <div class=\"update-block-body\">\n<p>Проблема исправлена, под наблюдением.</p>\n</div></div></div>\n<!--- language code: ru -->\n"},{"id":"413b7d49","title":"Миграция сервисов","date":"2019-11-27T12:16:02.047Z","modified":"2021-06-30T19:25:42.396Z","scheduled":"2019-11-26T07:00:00.000Z","duration":420,"severity":"under-maintenance","affectedsystems":["platform-api","submissions-api","web-console"],"resolved":true,"content":"<p>Продолжается миграция все сервисов платформы на новые сервера. Возможна краткосрочная недоступность, но не больше 5 минут.</p>\n<!--- language code: ru -->\n"},{"id":"dc36eee4","title":"Миграция данных","date":"2019-11-26T10:04:00.000Z","modified":"2021-06-30T19:25:32.493Z","scheduled":"2019-11-26T07:00:00.000Z","duration":360,"severity":"under-maintenance","affectedsystems":["widgets-api","platform-api","submissions-api","web-console"],"resolved":true,"content":"<p>Запланированная миграция данных на новые сервера. Перерывов в работе не ожидается.</p>\n<div class=\"update-block\">\n          <div class=\"update-block-date\">2019-11-26T11:19:00.000Z</div>\n          <div class=\"update-block-content\">\n            <div class=\"update-block-title\">Monitoring</div>\n            <div class=\"update-block-body\">\n<p>Мигрировали один сервер, работа продолжается.</p>\n</div></div></div>\n<!--- language code: ru -->\n"}],"order":20,"count":4}]}