{"count":15,"page":3,"page_size":3,"total_pages":5,"periods":[{"id":"2020-11","incidents":[{"id":"5c8e2d2f","title":"Недоступность Widgets API","date":"2020-11-06T09:50:00.000Z","modified":"2021-05-31T14:35:14.485Z","scheduled":null,"severity":"partial-outage","affectedsystems":["widgets-api"],"resolved":true,"content":"<p>Сегодня ночью в нашем дата-центре проводились плановые работы по модернизации сети.\nВ 00:10 по Москве произошло нарушение связности примерно на 20 минут, из-за чего\nнаблюдалась частичная недоступность Widgets API.</p>\n<p>Приносим извинения за доставленные неудобства.</p>\n<!--- language code: ru -->\n"}],"order":7,"count":1},{"id":"2020-9","incidents":[{"id":"3bc7a09e","title":"Недоступность главной реплики БД","date":"2020-09-09T01:30:00.000Z","modified":"2021-05-31T14:35:14.484Z","scheduled":null,"severity":"partial-outage","affectedsystems":["platform-api","widgets-api","web-console"],"resolved":true,"content":"<p>Сегодня ночью перезапустилась одна из главных (master) реплик кластера БД.\nК сожалению, наши сервисы не смогли автоматически восстановится после такого сбоя,\nпричина нам известна.</p>\n<p>В ближайшее время мы сделаем изменения в конфигурации БД,\nчтобы данная ситуация больше не повторялась.</p>\n<!--- language code: ru -->\n"},{"id":"01c4e390","title":"Неполадки в работе Platform API","date":"2020-09-01T12:00:00.000Z","modified":"2021-05-31T14:35:14.484Z","scheduled":null,"severity":"partial-outage","affectedsystems":["platform-api"],"resolved":true,"content":"<p>Patform API на любой запрос отвечает 404. Разбираемся.</p>\n<div class=\"update-block\">\n          <div class=\"update-block-date\">2020-09-01T12:47:00.000Z</div>\n          <div class=\"update-block-content\">\n            <div class=\"update-block-title\">Resolved</div>\n            <div class=\"update-block-body\">\n<p>Проблема решена.</p>\n</div></div></div>\n<!--- language code: ru -->\n"}],"order":9,"count":2},{"id":"2020-8","incidents":[{"id":"54b2765c","title":"Недоступность Widgets API","date":"2020-08-14T07:54:00.000Z","modified":"2021-05-31T14:35:14.483Z","scheduled":null,"severity":"partial-outage","affectedsystems":["widgets-api"],"resolved":true,"content":"<p>Частичная недоступность Widgets API. Причина известна. Исправляем.</p>\n<!--- language code: ru -->\n"},{"id":"2e8e7a76","title":"Не отправляются письма","date":"2020-08-12T07:00:00.000Z","modified":"2021-05-31T14:35:14.483Z","scheduled":null,"severity":"major-outage","affectedsystems":["campaigns-delivery"],"resolved":true,"content":"<p>Не работает отправка писем авто-кампаний. Ошибка в конфигурации SMTP подключения\nк mail серверу. Исправляем.</p>\n<!-- ::: update Monitoring | 2020-08-07T09:00:00Z\nПроблема решена.\n::: -->\n<!--- language code: ru -->\n"},{"id":"78bff870","title":"Падение производительности Widgets API","date":"2020-08-07T07:45:00.000Z","modified":"2021-05-31T14:35:14.482Z","scheduled":null,"severity":"degraded-performance","affectedsystems":["widgets-api"],"resolved":true,"content":"<p>Наблюдается падение производительности Widgets API.</p>\n<!--- language code: ru -->\n"},{"id":"d3341060","title":"Не отправляются письма","date":"2020-08-07T07:00:00.000Z","modified":"2021-05-31T14:35:14.482Z","scheduled":null,"severity":"major-outage","affectedsystems":["campaigns-delivery"],"resolved":true,"content":"<p>Не работает отправка писем авто-кампаний, а также системные уведомления.\nРазбираемся.</p>\n<div class=\"update-block\">\n          <div class=\"update-block-date\">2020-08-07T09:00:00.000Z</div>\n          <div class=\"update-block-content\">\n            <div class=\"update-block-title\">Monitoring</div>\n            <div class=\"update-block-body\">\n<p>Проблема решена.</p>\n</div></div></div>\n<!--- language code: ru -->\n"},{"id":"298b065f","title":"Плановое обновление Widgets API","date":"2020-08-05T07:30:00.000Z","modified":"2021-05-31T14:35:14.481Z","scheduled":"2020-08-05T07:30:00.000Z","duration":15,"severity":"under-maintenance","affectedsystems":["widgets-api"],"resolved":true,"content":"<p>Планируем обновить сертификаты для Widgets API, а также небольшие\nоптимизации кэша виджетов. Ожидается простой в пару минут.</p>\n<!--- language code: ru -->\n"},{"id":"39e51d47","title":"Плановое обновление БД","date":"2020-08-04T09:00:00.000Z","modified":"2021-05-31T14:35:14.481Z","scheduled":"2020-08-04T09:00:00.000Z","duration":60,"severity":"under-maintenance","affectedsystems":["widgets-api","platform-api","submissions-api","web-console"],"resolved":true,"content":"<p>Планируем обновить версию БД в кластере.\nОжидается недоступность некоторых сервисов в течение нескольких минут.</p>\n<!--- language code: ru -->\n"}],"order":10,"count":6}]}