{"count":18,"page":2,"page_size":3,"total_pages":6,"periods":[{"id":"2021-5","incidents":[{"id":"2b5a6d87","title":"Добавление ноды в поисковый кластер","date":"2021-05-31T14:30:00.000Z","modified":"2021-06-30T19:23:31.786Z","scheduled":"2021-05-31T14:30:00.000Z","duration":null,"severity":"under-maintenance","affectedsystems":["widgets-api","platform-api","submissions-api","web-console"],"resolved":true,"content":"<p>Добавляем новую ноду в кластер ElasticSearch. Простоя сервисов не ожидается.</p>\n<!--- language code: ru -->\n"}],"order":4,"count":1},{"id":"2021-4","incidents":[{"id":"653ad26c","title":"Инвалидация кэша виджетов","date":"2021-04-03T00:00:00.000Z","modified":"2021-08-16T09:58:31.935Z","scheduled":null,"severity":"degraded-performance","affectedsystems":["widgets-api"],"resolved":true,"content":"<p>Частично не работает инвалидация кэша виджетов по событиям.\nНовые отзывы/комментарии на сайте не появляются сразу после публикации,\nа только в течение суток.</p>\n<!--- language code: ru -->\n"},{"id":"984bbf20","title":"Увеличение задержки в Widgets API","date":"2021-04-01T00:00:00.000Z","modified":"2021-08-16T09:58:31.936Z","scheduled":null,"severity":"degraded-performance","affectedsystems":["widgets-api","platform-api"],"resolved":true,"content":"<p>Наблюдается увеличение задержки в Widgets API и Platform API.\nПричина локализована. Ведутся работы по расширению серверного кластера.</p>\n<!--- language code: ru -->\n"}],"order":5,"count":2},{"id":"2021-3","incidents":[{"id":"9070867c","title":"Апгрейд сервисов кэширования","date":"2021-03-10T18:00:00.000Z","modified":"2021-06-30T19:23:48.610Z","scheduled":"2021-03-10T19:50:00.000Z","duration":30,"severity":"under-maintenance","affectedsystems":["widgets-api"],"resolved":true,"content":"<p>Планируется перезагрузить некоторые сервисы и сбросить кеш виджетов.\nОжидается увеличение latency Widgets API в течение 30 минут.</p>\n<!--- language code: ru -->\n"},{"id":"906f9dbe","title":"Добавление индекса в БД","date":"2021-03-10T18:00:00.000Z","modified":"2021-06-30T19:24:04.095Z","scheduled":"2021-03-10T19:50:00.000Z","duration":10,"severity":"under-maintenance","affectedsystems":["widgets-api","platform-api","submissions-api","web-console"],"resolved":true,"content":"<p>Планируется добавление большого индекса в БД.\nОжидается простой до 10 минут.</p>\n<!--- language code: ru -->\n"}],"order":6,"count":2}]}